{
  "EDITOR_STATE": {
    "allProjectFiles": {
      "638975db-e803-4ae3-818e-5f83ad8f7eb3": {
        "id": "638975db-e803-4ae3-818e-5f83ad8f7eb3",
        "parent": null,
        "name": "mergetesthiru",
        "type": "DIRECTORY",
        "isDirectory": true,
        "children": [
          "1919ccd9-8a34-42a3-b592-77d4929b79f2",
          "e3a17d9c-3106-472c-a684-2992af686c1a"
        ],
        "isRemovable": false,
        "filePath": "mergetesthiru"
      },
      "1919ccd9-8a34-42a3-b592-77d4929b79f2": {
        "id": "1919ccd9-8a34-42a3-b592-77d4929b79f2",
        "parent": "638975db-e803-4ae3-818e-5f83ad8f7eb3",
        "name": "function.js",
        "type": "JS_LAMBDA",
        "isDirectory": false,
        "children": [],
        "isRemovable": true,
        "filePath": "mergetesthiru/function.js",
        "code": "let google = require('googleapis').google;\nlet _auth = require('./Authorizer');\nconst pubsub = google.pubsub('v1');\n\nexports.handler = function (request, response) {\n\n    pubsub.projects.topics.subscriptions.list({\n        topic: `projects/${process.env.GCP_PROJECT}/topics/hirutest`,\n        pageSize: 10\n    })\n        .then(response => {\n            console.log(\"k2\");  // successful response\n            /*\n            response.data = {\n                \"subscriptions\": [\n                    \"projects/<project>/subscriptions/<subscription-1>\",\n                    \"projects/<project>/subscriptions/<subscription-2>\",\n                    ...\n                ]\n            }\n            */\n        })\n        .catch(err => {\n            console.log(err, err.stack); // an error occurred\n        });\n\n\n    response.send({ \"message\": \"Successfully executed\" });\n}",
        "config": {
          "runtime": "nodejs8",
          "timeout": 60,
          "memory": 128,
          "triggerType": 0
        },
        "triggers": [
          {
            "resourceName": "http-trigger",
            "config": {}
          }
        ]
      },
      "85b5cfd4-0240-48b6-b420-8474f072e478": {
        "id": "85b5cfd4-0240-48b6-b420-8474f072e478",
        "parent": null,
        "name": "index.js",
        "type": "JS_FILE",
        "isDirectory": false,
        "children": [],
        "isRemovable": false,
        "filePath": "index.js",
        "code": "// This file is used to register all your cloud functions in GCP.\n// DO NOT EDIT/DELETE THIS, UNLESS YOU KNOW WHAT YOU ARE DOING.\n\nexports.mergetesthirufunction = require(\"./mergetesthiru/function.js\").handler;"
      },
      "e3a17d9c-3106-472c-a684-2992af686c1a": {
        "id": "e3a17d9c-3106-472c-a684-2992af686c1a",
        "parent": "638975db-e803-4ae3-818e-5f83ad8f7eb3",
        "name": "Authorizer.js",
        "type": "JS_FILE",
        "isDirectory": false,
        "children": [],
        "isRemovable": true,
        "filePath": "mergetesthiru/Authorizer.js",
        "code": "const google = require(\"googleapis\").google;\n\ngoogle.options({auth: new google.auth.Compute()});"
      }
    },
    "deletedFiles": [],
    "rootNode": "638975db-e803-4ae3-818e-5f83ad8f7eb3",
    "openFiles": [
      "1919ccd9-8a34-42a3-b592-77d4929b79f2"
    ],
    "currentFileId": "1919ccd9-8a34-42a3-b592-77d4929b79f2",
    "resources": {
      "http-trigger": {
        "name": "http-trigger",
        "type": "http-trigger",
        "config": {}
      },
      "pubsubhirutest": {
        "name": "pubsubhirutest",
        "type": "pubsub",
        "config": {
          "mode": 0,
          "topic": {
            "name": "hirutest",
            "subscriptions": []
          }
        }
      }
    },
    "customTemplate": {
      "dialect": null,
      "definitions": {}
    },
    "envVariables": [],
    "packageJSON": {
      "dependencies": {
        "googleapis": {
          "name": "googleapis",
          "language": "javascript",
          "version": "29.0.0",
          "dev": false,
          "notRemovable": false
        }
      }
    }
  },
  "PROJECT_META": {
    "projectName": "mergetesthiru",
    "projectDescription": "This project is created to test merge feature in Sigma",
    "projectVersion": "1.0.0",
    "projectRegion": "us-east1",
    "platform": "GCP",
    "platformRegions": {},
    "lastSave": 1562054142912
  },
  "VCS_STATE": {
    "provider": "BitBucket",
    "repo": {
      "name": "mergetesthiru",
      "url": "https://bitbucket.org/hirudineeliyanage/mergetesthiru"
    }
  }
}